{"_id":{"$oid":"59784c78fa75ea327e554fd2"},"userId":1,"stocks":20,"funds":32,"bonds":48}
{"_id":{"$oid":"59784c78fa75ea327e554fd3"},"userId":2,"stocks":35,"funds":29,"bonds":36}
{"_id":{"$oid":"59784c78fa75ea327e554fd4"},"userId":3,"stocks":33,"funds":1,"bonds":66}
{"_id":{"$oid":"597abfdbc34685d68322c22e"},"userId":4,"stocks":5,"funds":18,"bonds":77}
{"_id":{"$oid":"59db03105a7ec71b14568d82"},"userId":5,"stocks":13,"funds":5,"bonds":82}
{"_id":{"$oid":"59db0c055a7ec71b14568d83"},"userId":6,"stocks":32,"funds":5,"bonds":63}
{"_id":{"$oid":"5a1bb97c7d544c1be8f11b86"},"userId":7,"stocks":36,"funds":19,"bonds":45}
